# query {
#   etrackers{
#     category
#     nama
#   }
# }

# {
#   etrackerByCat(category:"FOOD"){
#     nama,
#     used,
#     expense,
#     category
#   }
# }


# mutation {
#   insertEtracker(nama:"Dimas", used:"Eat Pizza", expense:24000, category:"FOOD"){
#     nama
#     used,
#     expense,
#     category
#   }
# }

# mutation {
#   updateEtracker(id: "5e7245e85268e85fc4736340",used:"Pay Busway", category:"TRANSPORT"){
#     nama
#     used,
#     expense,
#     category
#   }
# }

# mutation {
#   deleteEtracker(id: "5e7245e85268e85fc4736340"){
#     nama
#     used,
#     expense,
#     category
#   }
# }